2022-03-29 13:36:41,531 [restartedMain] INFO  c.e.p.Practice3Application                         - Starting Practice3Application using Java 17.0.2 on Kaiser with PID 15340 (D:\GocHocTap\ITSJ\HocTap\SpringBoot\Practice3\target\classes started by Kaiser in D:\GocHocTap\ITSJ\HocTap\SpringBoot\Practice3) 
2022-03-29 13:36:41,538 [restartedMain] INFO  c.e.p.Practice3Application                         - No active profile set, falling back to 1 default profile: "default" 
2022-03-29 13:36:41,575 [restartedMain] INFO  o.s.b.d.e.DevToolsPropertyDefaultsPostProcessor    - Devtools property defaults active! Set 'spring.devtools.add-properties' to 'false' to disable 
2022-03-29 13:36:41,575 [restartedMain] INFO  o.s.b.d.e.DevToolsPropertyDefaultsPostProcessor    - For additional web related logging consider setting the 'logging.level.web' property to 'DEBUG' 
2022-03-29 13:36:42,159 [restartedMain] INFO  o.s.d.r.c.RepositoryConfigurationDelegate          - Bootstrapping Spring Data JPA repositories in DEFAULT mode. 
2022-03-29 13:36:42,226 [restartedMain] INFO  o.s.d.r.c.RepositoryConfigurationDelegate          - Finished Spring Data repository scanning in 53 ms. Found 2 JPA repository interfaces. 
2022-03-29 13:36:42,644 [restartedMain] INFO  o.s.b.w.e.t.TomcatWebServer                        - Tomcat initialized with port(s): 8080 (http) 
2022-03-29 13:36:42,650 [restartedMain] INFO  o.a.c.h.Http11NioProtocol                          - Initializing ProtocolHandler ["http-nio-8080"] 
2022-03-29 13:36:42,651 [restartedMain] INFO  o.a.c.c.StandardService                            - Starting service [Tomcat] 
2022-03-29 13:36:42,651 [restartedMain] INFO  o.a.c.c.StandardEngine                             - Starting Servlet engine: [Apache Tomcat/9.0.58] 
2022-03-29 13:36:42,712 [restartedMain] INFO  o.a.c.c.C.[.[.[/]                                  - Initializing Spring embedded WebApplicationContext 
2022-03-29 13:36:42,712 [restartedMain] INFO  o.s.b.w.s.c.ServletWebServerApplicationContext     - Root WebApplicationContext: initialization completed in 1136 ms 
2022-03-29 13:36:42,832 [restartedMain] INFO  o.h.j.i.u.LogHelper                                - HHH000204: Processing PersistenceUnitInfo [name: default] 
2022-03-29 13:36:42,871 [restartedMain] INFO  o.h.Version                                        - HHH000412: Hibernate ORM core version 5.6.5.Final 
2022-03-29 13:36:42,978 [restartedMain] INFO  o.h.a.c.Version                                    - HCANN000001: Hibernate Commons Annotations {5.1.2.Final} 
2022-03-29 13:36:43,057 [restartedMain] INFO  c.z.h.HikariDataSource                             - HikariPool-1 - Starting... 
2022-03-29 13:36:43,329 [restartedMain] INFO  c.z.h.HikariDataSource                             - HikariPool-1 - Start completed. 
2022-03-29 13:36:43,340 [restartedMain] INFO  o.h.d.Dialect                                      - HHH000400: Using dialect: org.hibernate.dialect.MySQL5Dialect 
2022-03-29 13:36:43,917 [restartedMain] INFO  o.h.e.t.j.p.i.JtaPlatformInitiator                 - HHH000490: Using JtaPlatform implementation: [org.hibernate.engine.transaction.jta.platform.internal.NoJtaPlatform] 
2022-03-29 13:36:43,924 [restartedMain] INFO  o.s.o.j.LocalContainerEntityManagerFactoryBean     - Initialized JPA EntityManagerFactory for persistence unit 'default' 
2022-03-29 13:36:44,237 [restartedMain] WARN  o.s.b.a.o.j.JpaBaseConfiguration$JpaWebConfiguration - spring.jpa.open-in-view is enabled by default. Therefore, database queries may be performed during view rendering. Explicitly configure spring.jpa.open-in-view to disable this warning 
2022-03-29 13:36:44,485 [restartedMain] INFO  o.s.b.d.a.OptionalLiveReloadServer                 - LiveReload server is running on port 35729 
2022-03-29 13:36:44,503 [restartedMain] INFO  o.a.c.h.Http11NioProtocol                          - Starting ProtocolHandler ["http-nio-8080"] 
2022-03-29 13:36:44,518 [restartedMain] INFO  o.s.b.w.e.t.TomcatWebServer                        - Tomcat started on port(s): 8080 (http) with context path '' 
2022-03-29 13:36:44,527 [restartedMain] INFO  c.e.p.Practice3Application                         - Started Practice3Application in 3.28 seconds (JVM running for 4.345) 
2022-03-29 13:49:18,560 [SpringApplicationShutdownHook] INFO  o.s.o.j.LocalContainerEntityManagerFactoryBean     - Closing JPA EntityManagerFactory for persistence unit 'default' 
2022-03-29 13:49:18,562 [SpringApplicationShutdownHook] INFO  c.z.h.HikariDataSource                             - HikariPool-1 - Shutdown initiated... 
2022-03-29 13:49:18,569 [SpringApplicationShutdownHook] INFO  c.z.h.HikariDataSource                             - HikariPool-1 - Shutdown completed. 
2022-03-29 13:49:29,487 [restartedMain] INFO  c.e.p.Practice3Application                         - Starting Practice3Application using Java 17.0.2 on Kaiser with PID 16940 (D:\GocHocTap\ITSJ\HocTap\SpringBoot\Practice3\target\classes started by Kaiser in D:\GocHocTap\ITSJ\HocTap\SpringBoot\Practice3) 
2022-03-29 13:49:29,494 [restartedMain] INFO  c.e.p.Practice3Application                         - No active profile set, falling back to 1 default profile: "default" 
2022-03-29 13:49:29,529 [restartedMain] INFO  o.s.b.d.e.DevToolsPropertyDefaultsPostProcessor    - Devtools property defaults active! Set 'spring.devtools.add-properties' to 'false' to disable 
2022-03-29 13:49:29,529 [restartedMain] INFO  o.s.b.d.e.DevToolsPropertyDefaultsPostProcessor    - For additional web related logging consider setting the 'logging.level.web' property to 'DEBUG' 
2022-03-29 13:49:30,086 [restartedMain] INFO  o.s.d.r.c.RepositoryConfigurationDelegate          - Bootstrapping Spring Data JPA repositories in DEFAULT mode. 
2022-03-29 13:49:30,131 [restartedMain] INFO  o.s.d.r.c.RepositoryConfigurationDelegate          - Finished Spring Data repository scanning in 36 ms. Found 2 JPA repository interfaces. 
2022-03-29 13:49:30,643 [restartedMain] INFO  o.s.b.w.e.t.TomcatWebServer                        - Tomcat initialized with port(s): 8080 (http) 
2022-03-29 13:49:30,651 [restartedMain] INFO  o.a.c.h.Http11NioProtocol                          - Initializing ProtocolHandler ["http-nio-8080"] 
2022-03-29 13:49:30,652 [restartedMain] INFO  o.a.c.c.StandardService                            - Starting service [Tomcat] 
2022-03-29 13:49:30,653 [restartedMain] INFO  o.a.c.c.StandardEngine                             - Starting Servlet engine: [Apache Tomcat/9.0.58] 
2022-03-29 13:49:30,720 [restartedMain] INFO  o.a.c.c.C.[.[.[/]                                  - Initializing Spring embedded WebApplicationContext 
2022-03-29 13:49:30,721 [restartedMain] INFO  o.s.b.w.s.c.ServletWebServerApplicationContext     - Root WebApplicationContext: initialization completed in 1192 ms 
2022-03-29 13:49:30,859 [restartedMain] INFO  o.h.j.i.u.LogHelper                                - HHH000204: Processing PersistenceUnitInfo [name: default] 
2022-03-29 13:49:30,896 [restartedMain] INFO  o.h.Version                                        - HHH000412: Hibernate ORM core version 5.6.5.Final 
2022-03-29 13:49:31,015 [restartedMain] INFO  o.h.a.c.Version                                    - HCANN000001: Hibernate Commons Annotations {5.1.2.Final} 
2022-03-29 13:49:31,086 [restartedMain] INFO  c.z.h.HikariDataSource                             - HikariPool-1 - Starting... 
2022-03-29 13:49:31,353 [restartedMain] INFO  c.z.h.HikariDataSource                             - HikariPool-1 - Start completed. 
2022-03-29 13:49:31,364 [restartedMain] INFO  o.h.d.Dialect                                      - HHH000400: Using dialect: org.hibernate.dialect.MySQL5Dialect 
2022-03-29 13:49:31,929 [restartedMain] INFO  o.h.e.t.j.p.i.JtaPlatformInitiator                 - HHH000490: Using JtaPlatform implementation: [org.hibernate.engine.transaction.jta.platform.internal.NoJtaPlatform] 
2022-03-29 13:49:31,936 [restartedMain] INFO  o.s.o.j.LocalContainerEntityManagerFactoryBean     - Initialized JPA EntityManagerFactory for persistence unit 'default' 
2022-03-29 13:49:32,294 [restartedMain] WARN  o.s.b.a.o.j.JpaBaseConfiguration$JpaWebConfiguration - spring.jpa.open-in-view is enabled by default. Therefore, database queries may be performed during view rendering. Explicitly configure spring.jpa.open-in-view to disable this warning 
2022-03-29 13:49:32,590 [restartedMain] INFO  o.s.b.d.a.OptionalLiveReloadServer                 - LiveReload server is running on port 35729 
2022-03-29 13:49:32,608 [restartedMain] INFO  o.a.c.h.Http11NioProtocol                          - Starting ProtocolHandler ["http-nio-8080"] 
2022-03-29 13:49:32,624 [restartedMain] INFO  o.s.b.w.e.t.TomcatWebServer                        - Tomcat started on port(s): 8080 (http) with context path '' 
2022-03-29 13:49:32,655 [restartedMain] INFO  c.e.p.Practice3Application                         - Started Practice3Application in 3.462 seconds (JVM running for 4.436) 
2022-03-29 13:49:40,669 [SpringApplicationShutdownHook] INFO  o.s.o.j.LocalContainerEntityManagerFactoryBean     - Closing JPA EntityManagerFactory for persistence unit 'default' 
2022-03-29 13:49:40,671 [SpringApplicationShutdownHook] INFO  c.z.h.HikariDataSource                             - HikariPool-1 - Shutdown initiated... 
2022-03-29 13:49:40,677 [SpringApplicationShutdownHook] INFO  c.z.h.HikariDataSource                             - HikariPool-1 - Shutdown completed. 
2022-03-29 13:49:43,818 [restartedMain] INFO  c.e.p.Practice3Application                         - Starting Practice3Application using Java 17.0.2 on Kaiser with PID 17464 (D:\GocHocTap\ITSJ\HocTap\SpringBoot\Practice3\target\classes started by Kaiser in D:\GocHocTap\ITSJ\HocTap\SpringBoot\Practice3) 
2022-03-29 13:49:43,825 [restartedMain] INFO  c.e.p.Practice3Application                         - No active profile set, falling back to 1 default profile: "default" 
2022-03-29 13:49:43,863 [restartedMain] INFO  o.s.b.d.e.DevToolsPropertyDefaultsPostProcessor    - Devtools property defaults active! Set 'spring.devtools.add-properties' to 'false' to disable 
2022-03-29 13:49:43,864 [restartedMain] INFO  o.s.b.d.e.DevToolsPropertyDefaultsPostProcessor    - For additional web related logging consider setting the 'logging.level.web' property to 'DEBUG' 
2022-03-29 13:49:44,470 [restartedMain] INFO  o.s.d.r.c.RepositoryConfigurationDelegate          - Bootstrapping Spring Data JPA repositories in DEFAULT mode. 
2022-03-29 13:49:44,516 [restartedMain] INFO  o.s.d.r.c.RepositoryConfigurationDelegate          - Finished Spring Data repository scanning in 38 ms. Found 2 JPA repository interfaces. 
2022-03-29 13:49:44,972 [restartedMain] INFO  o.s.b.w.e.t.TomcatWebServer                        - Tomcat initialized with port(s): 8080 (http) 
2022-03-29 13:49:44,978 [restartedMain] INFO  o.a.c.h.Http11NioProtocol                          - Initializing ProtocolHandler ["http-nio-8080"] 
2022-03-29 13:49:44,979 [restartedMain] INFO  o.a.c.c.StandardService                            - Starting service [Tomcat] 
2022-03-29 13:49:44,979 [restartedMain] INFO  o.a.c.c.StandardEngine                             - Starting Servlet engine: [Apache Tomcat/9.0.58] 
2022-03-29 13:49:45,043 [restartedMain] INFO  o.a.c.c.C.[.[.[/]                                  - Initializing Spring embedded WebApplicationContext 
2022-03-29 13:49:45,043 [restartedMain] INFO  o.s.b.w.s.c.ServletWebServerApplicationContext     - Root WebApplicationContext: initialization completed in 1179 ms 
2022-03-29 13:49:45,191 [restartedMain] INFO  o.h.j.i.u.LogHelper                                - HHH000204: Processing PersistenceUnitInfo [name: default] 
2022-03-29 13:49:45,233 [restartedMain] INFO  o.h.Version                                        - HHH000412: Hibernate ORM core version 5.6.5.Final 
2022-03-29 13:49:45,362 [restartedMain] INFO  o.h.a.c.Version                                    - HCANN000001: Hibernate Commons Annotations {5.1.2.Final} 
2022-03-29 13:49:45,450 [restartedMain] INFO  c.z.h.HikariDataSource                             - HikariPool-1 - Starting... 
2022-03-29 13:49:45,719 [restartedMain] INFO  c.z.h.HikariDataSource                             - HikariPool-1 - Start completed. 
2022-03-29 13:49:45,729 [restartedMain] INFO  o.h.d.Dialect                                      - HHH000400: Using dialect: org.hibernate.dialect.MySQL5Dialect 
2022-03-29 13:49:46,326 [restartedMain] INFO  o.h.e.t.j.p.i.JtaPlatformInitiator                 - HHH000490: Using JtaPlatform implementation: [org.hibernate.engine.transaction.jta.platform.internal.NoJtaPlatform] 
2022-03-29 13:49:46,333 [restartedMain] INFO  o.s.o.j.LocalContainerEntityManagerFactoryBean     - Initialized JPA EntityManagerFactory for persistence unit 'default' 
2022-03-29 13:49:46,640 [restartedMain] WARN  o.s.b.a.o.j.JpaBaseConfiguration$JpaWebConfiguration - spring.jpa.open-in-view is enabled by default. Therefore, database queries may be performed during view rendering. Explicitly configure spring.jpa.open-in-view to disable this warning 
2022-03-29 13:49:46,880 [restartedMain] INFO  o.s.b.d.a.OptionalLiveReloadServer                 - LiveReload server is running on port 35729 
2022-03-29 13:49:46,896 [restartedMain] INFO  o.a.c.h.Http11NioProtocol                          - Starting ProtocolHandler ["http-nio-8080"] 
2022-03-29 13:49:46,911 [restartedMain] INFO  o.s.b.w.e.t.TomcatWebServer                        - Tomcat started on port(s): 8080 (http) with context path '' 
2022-03-29 13:49:46,920 [restartedMain] INFO  c.e.p.Practice3Application                         - Started Practice3Application in 3.463 seconds (JVM running for 4.448) 
2022-03-29 13:49:54,121 [SpringApplicationShutdownHook] INFO  o.s.o.j.LocalContainerEntityManagerFactoryBean     - Closing JPA EntityManagerFactory for persistence unit 'default' 
2022-03-29 13:49:54,123 [SpringApplicationShutdownHook] INFO  c.z.h.HikariDataSource                             - HikariPool-1 - Shutdown initiated... 
2022-03-29 13:49:54,129 [SpringApplicationShutdownHook] INFO  c.z.h.HikariDataSource                             - HikariPool-1 - Shutdown completed. 
2022-03-29 13:49:57,134 [restartedMain] INFO  c.e.p.Practice3Application                         - Starting Practice3Application using Java 17.0.2 on Kaiser with PID 13080 (D:\GocHocTap\ITSJ\HocTap\SpringBoot\Practice3\target\classes started by Kaiser in D:\GocHocTap\ITSJ\HocTap\SpringBoot\Practice3) 
2022-03-29 13:49:57,142 [restartedMain] INFO  c.e.p.Practice3Application                         - No active profile set, falling back to 1 default profile: "default" 
2022-03-29 13:49:57,199 [restartedMain] INFO  o.s.b.d.e.DevToolsPropertyDefaultsPostProcessor    - Devtools property defaults active! Set 'spring.devtools.add-properties' to 'false' to disable 
2022-03-29 13:49:57,199 [restartedMain] INFO  o.s.b.d.e.DevToolsPropertyDefaultsPostProcessor    - For additional web related logging consider setting the 'logging.level.web' property to 'DEBUG' 
2022-03-29 13:49:57,799 [restartedMain] INFO  o.s.d.r.c.RepositoryConfigurationDelegate          - Bootstrapping Spring Data JPA repositories in DEFAULT mode. 
2022-03-29 13:49:57,855 [restartedMain] INFO  o.s.d.r.c.RepositoryConfigurationDelegate          - Finished Spring Data repository scanning in 48 ms. Found 2 JPA repository interfaces. 
2022-03-29 13:49:58,348 [restartedMain] INFO  o.s.b.w.e.t.TomcatWebServer                        - Tomcat initialized with port(s): 8080 (http) 
2022-03-29 13:49:58,354 [restartedMain] INFO  o.a.c.h.Http11NioProtocol                          - Initializing ProtocolHandler ["http-nio-8080"] 
2022-03-29 13:49:58,355 [restartedMain] INFO  o.a.c.c.StandardService                            - Starting service [Tomcat] 
2022-03-29 13:49:58,355 [restartedMain] INFO  o.a.c.c.StandardEngine                             - Starting Servlet engine: [Apache Tomcat/9.0.58] 
2022-03-29 13:49:58,425 [restartedMain] INFO  o.a.c.c.C.[.[.[/]                                  - Initializing Spring embedded WebApplicationContext 
2022-03-29 13:49:58,425 [restartedMain] INFO  o.s.b.w.s.c.ServletWebServerApplicationContext     - Root WebApplicationContext: initialization completed in 1225 ms 
2022-03-29 13:49:58,549 [restartedMain] INFO  o.h.j.i.u.LogHelper                                - HHH000204: Processing PersistenceUnitInfo [name: default] 
2022-03-29 13:49:58,591 [restartedMain] INFO  o.h.Version                                        - HHH000412: Hibernate ORM core version 5.6.5.Final 
2022-03-29 13:49:58,698 [restartedMain] INFO  o.h.a.c.Version                                    - HCANN000001: Hibernate Commons Annotations {5.1.2.Final} 
2022-03-29 13:49:58,786 [restartedMain] INFO  c.z.h.HikariDataSource                             - HikariPool-1 - Starting... 
2022-03-29 13:49:59,049 [restartedMain] INFO  c.z.h.HikariDataSource                             - HikariPool-1 - Start completed. 
2022-03-29 13:49:59,058 [restartedMain] INFO  o.h.d.Dialect                                      - HHH000400: Using dialect: org.hibernate.dialect.MySQL5Dialect 
2022-03-29 13:49:59,665 [restartedMain] INFO  o.h.e.t.j.p.i.JtaPlatformInitiator                 - HHH000490: Using JtaPlatform implementation: [org.hibernate.engine.transaction.jta.platform.internal.NoJtaPlatform] 
2022-03-29 13:49:59,671 [restartedMain] INFO  o.s.o.j.LocalContainerEntityManagerFactoryBean     - Initialized JPA EntityManagerFactory for persistence unit 'default' 
2022-03-29 13:50:00,011 [restartedMain] WARN  o.s.b.a.o.j.JpaBaseConfiguration$JpaWebConfiguration - spring.jpa.open-in-view is enabled by default. Therefore, database queries may be performed during view rendering. Explicitly configure spring.jpa.open-in-view to disable this warning 
2022-03-29 13:50:00,283 [restartedMain] INFO  o.s.b.d.a.OptionalLiveReloadServer                 - LiveReload server is running on port 35729 
2022-03-29 13:50:00,302 [restartedMain] INFO  o.a.c.h.Http11NioProtocol                          - Starting ProtocolHandler ["http-nio-8080"] 
2022-03-29 13:50:00,322 [restartedMain] INFO  o.s.b.w.e.t.TomcatWebServer                        - Tomcat started on port(s): 8080 (http) with context path '' 
2022-03-29 13:50:00,334 [restartedMain] INFO  c.e.p.Practice3Application                         - Started Practice3Application in 3.565 seconds (JVM running for 4.496) 
2022-03-29 13:50:12,640 [SpringApplicationShutdownHook] INFO  o.s.o.j.LocalContainerEntityManagerFactoryBean     - Closing JPA EntityManagerFactory for persistence unit 'default' 
2022-03-29 13:50:12,644 [SpringApplicationShutdownHook] INFO  c.z.h.HikariDataSource                             - HikariPool-1 - Shutdown initiated... 
2022-03-29 13:50:12,654 [SpringApplicationShutdownHook] INFO  c.z.h.HikariDataSource                             - HikariPool-1 - Shutdown completed. 
2022-03-29 13:50:15,605 [restartedMain] INFO  c.e.p.Practice3Application                         - Starting Practice3Application using Java 17.0.2 on Kaiser with PID 2992 (D:\GocHocTap\ITSJ\HocTap\SpringBoot\Practice3\target\classes started by Kaiser in D:\GocHocTap\ITSJ\HocTap\SpringBoot\Practice3) 
2022-03-29 13:50:15,611 [restartedMain] INFO  c.e.p.Practice3Application                         - No active profile set, falling back to 1 default profile: "default" 
2022-03-29 13:50:15,646 [restartedMain] INFO  o.s.b.d.e.DevToolsPropertyDefaultsPostProcessor    - Devtools property defaults active! Set 'spring.devtools.add-properties' to 'false' to disable 
2022-03-29 13:50:15,646 [restartedMain] INFO  o.s.b.d.e.DevToolsPropertyDefaultsPostProcessor    - For additional web related logging consider setting the 'logging.level.web' property to 'DEBUG' 
2022-03-29 13:50:16,145 [restartedMain] INFO  o.s.d.r.c.RepositoryConfigurationDelegate          - Bootstrapping Spring Data JPA repositories in DEFAULT mode. 
2022-03-29 13:50:16,192 [restartedMain] INFO  o.s.d.r.c.RepositoryConfigurationDelegate          - Finished Spring Data repository scanning in 38 ms. Found 2 JPA repository interfaces. 
2022-03-29 13:50:16,607 [restartedMain] INFO  o.s.b.w.e.t.TomcatWebServer                        - Tomcat initialized with port(s): 8080 (http) 
2022-03-29 13:50:16,613 [restartedMain] INFO  o.a.c.h.Http11NioProtocol                          - Initializing ProtocolHandler ["http-nio-8080"] 
2022-03-29 13:50:16,614 [restartedMain] INFO  o.a.c.c.StandardService                            - Starting service [Tomcat] 
2022-03-29 13:50:16,614 [restartedMain] INFO  o.a.c.c.StandardEngine                             - Starting Servlet engine: [Apache Tomcat/9.0.58] 
2022-03-29 13:50:16,679 [restartedMain] INFO  o.a.c.c.C.[.[.[/]                                  - Initializing Spring embedded WebApplicationContext 
2022-03-29 13:50:16,679 [restartedMain] INFO  o.s.b.w.s.c.ServletWebServerApplicationContext     - Root WebApplicationContext: initialization completed in 1033 ms 
2022-03-29 13:50:16,799 [restartedMain] INFO  o.h.j.i.u.LogHelper                                - HHH000204: Processing PersistenceUnitInfo [name: default] 
2022-03-29 13:50:16,835 [restartedMain] INFO  o.h.Version                                        - HHH000412: Hibernate ORM core version 5.6.5.Final 
2022-03-29 13:50:16,930 [restartedMain] INFO  o.h.a.c.Version                                    - HCANN000001: Hibernate Commons Annotations {5.1.2.Final} 
2022-03-29 13:50:17,001 [restartedMain] INFO  c.z.h.HikariDataSource                             - HikariPool-1 - Starting... 
2022-03-29 13:50:17,265 [restartedMain] INFO  c.z.h.HikariDataSource                             - HikariPool-1 - Start completed. 
2022-03-29 13:50:17,278 [restartedMain] INFO  o.h.d.Dialect                                      - HHH000400: Using dialect: org.hibernate.dialect.MySQL5Dialect 
2022-03-29 13:50:17,921 [restartedMain] INFO  o.h.e.t.j.p.i.JtaPlatformInitiator                 - HHH000490: Using JtaPlatform implementation: [org.hibernate.engine.transaction.jta.platform.internal.NoJtaPlatform] 
2022-03-29 13:50:17,928 [restartedMain] INFO  o.s.o.j.LocalContainerEntityManagerFactoryBean     - Initialized JPA EntityManagerFactory for persistence unit 'default' 
2022-03-29 13:50:18,257 [restartedMain] WARN  o.s.b.a.o.j.JpaBaseConfiguration$JpaWebConfiguration - spring.jpa.open-in-view is enabled by default. Therefore, database queries may be performed during view rendering. Explicitly configure spring.jpa.open-in-view to disable this warning 
2022-03-29 13:50:18,484 [restartedMain] INFO  o.s.b.d.a.OptionalLiveReloadServer                 - LiveReload server is running on port 35729 
2022-03-29 13:50:18,499 [restartedMain] INFO  o.a.c.h.Http11NioProtocol                          - Starting ProtocolHandler ["http-nio-8080"] 
2022-03-29 13:50:18,514 [restartedMain] INFO  o.s.b.w.e.t.TomcatWebServer                        - Tomcat started on port(s): 8080 (http) with context path '' 
2022-03-29 13:50:18,524 [restartedMain] INFO  c.e.p.Practice3Application                         - Started Practice3Application in 3.222 seconds (JVM running for 4.138) 
2022-03-29 13:50:30,680 [SpringApplicationShutdownHook] INFO  o.s.o.j.LocalContainerEntityManagerFactoryBean     - Closing JPA EntityManagerFactory for persistence unit 'default' 
2022-03-29 13:50:30,682 [SpringApplicationShutdownHook] INFO  c.z.h.HikariDataSource                             - HikariPool-1 - Shutdown initiated... 
2022-03-29 13:50:30,688 [SpringApplicationShutdownHook] INFO  c.z.h.HikariDataSource                             - HikariPool-1 - Shutdown completed. 
2022-03-29 13:50:41,297 [restartedMain] INFO  c.e.p.Practice3Application                         - Starting Practice3Application using Java 17.0.2 on Kaiser with PID 16424 (D:\GocHocTap\ITSJ\HocTap\SpringBoot\Practice3\target\classes started by Kaiser in D:\GocHocTap\ITSJ\HocTap\SpringBoot\Practice3) 
2022-03-29 13:50:41,304 [restartedMain] INFO  c.e.p.Practice3Application                         - No active profile set, falling back to 1 default profile: "default" 
2022-03-29 13:50:41,341 [restartedMain] INFO  o.s.b.d.e.DevToolsPropertyDefaultsPostProcessor    - Devtools property defaults active! Set 'spring.devtools.add-properties' to 'false' to disable 
2022-03-29 13:50:41,341 [restartedMain] INFO  o.s.b.d.e.DevToolsPropertyDefaultsPostProcessor    - For additional web related logging consider setting the 'logging.level.web' property to 'DEBUG' 
2022-03-29 13:50:41,879 [restartedMain] INFO  o.s.d.r.c.RepositoryConfigurationDelegate          - Bootstrapping Spring Data JPA repositories in DEFAULT mode. 
2022-03-29 13:50:41,935 [restartedMain] INFO  o.s.d.r.c.RepositoryConfigurationDelegate          - Finished Spring Data repository scanning in 47 ms. Found 2 JPA repository interfaces. 
2022-03-29 13:50:42,417 [restartedMain] INFO  o.s.b.w.e.t.TomcatWebServer                        - Tomcat initialized with port(s): 8080 (http) 
2022-03-29 13:50:42,425 [restartedMain] INFO  o.a.c.h.Http11NioProtocol                          - Initializing ProtocolHandler ["http-nio-8080"] 
2022-03-29 13:50:42,426 [restartedMain] INFO  o.a.c.c.StandardService                            - Starting service [Tomcat] 
2022-03-29 13:50:42,427 [restartedMain] INFO  o.a.c.c.StandardEngine                             - Starting Servlet engine: [Apache Tomcat/9.0.58] 
2022-03-29 13:50:42,488 [restartedMain] INFO  o.a.c.c.C.[.[.[/]                                  - Initializing Spring embedded WebApplicationContext 
2022-03-29 13:50:42,488 [restartedMain] INFO  o.s.b.w.s.c.ServletWebServerApplicationContext     - Root WebApplicationContext: initialization completed in 1146 ms 
2022-03-29 13:50:42,617 [restartedMain] INFO  o.h.j.i.u.LogHelper                                - HHH000204: Processing PersistenceUnitInfo [name: default] 
2022-03-29 13:50:42,656 [restartedMain] INFO  o.h.Version                                        - HHH000412: Hibernate ORM core version 5.6.5.Final 
2022-03-29 13:50:42,760 [restartedMain] INFO  o.h.a.c.Version                                    - HCANN000001: Hibernate Commons Annotations {5.1.2.Final} 
2022-03-29 13:50:42,837 [restartedMain] INFO  c.z.h.HikariDataSource                             - HikariPool-1 - Starting... 
2022-03-29 13:50:43,099 [restartedMain] INFO  c.z.h.HikariDataSource                             - HikariPool-1 - Start completed. 
2022-03-29 13:50:43,110 [restartedMain] INFO  o.h.d.Dialect                                      - HHH000400: Using dialect: org.hibernate.dialect.MySQL5Dialect 
2022-03-29 13:50:43,670 [restartedMain] INFO  o.h.e.t.j.p.i.JtaPlatformInitiator                 - HHH000490: Using JtaPlatform implementation: [org.hibernate.engine.transaction.jta.platform.internal.NoJtaPlatform] 
2022-03-29 13:50:43,677 [restartedMain] INFO  o.s.o.j.LocalContainerEntityManagerFactoryBean     - Initialized JPA EntityManagerFactory for persistence unit 'default' 
2022-03-29 13:50:43,974 [restartedMain] WARN  o.s.b.a.o.j.JpaBaseConfiguration$JpaWebConfiguration - spring.jpa.open-in-view is enabled by default. Therefore, database queries may be performed during view rendering. Explicitly configure spring.jpa.open-in-view to disable this warning 
2022-03-29 13:50:44,216 [restartedMain] INFO  o.s.b.d.a.OptionalLiveReloadServer                 - LiveReload server is running on port 35729 
2022-03-29 13:50:44,233 [restartedMain] INFO  o.a.c.h.Http11NioProtocol                          - Starting ProtocolHandler ["http-nio-8080"] 
2022-03-29 13:50:44,248 [restartedMain] INFO  o.s.b.w.e.t.TomcatWebServer                        - Tomcat started on port(s): 8080 (http) with context path '' 
2022-03-29 13:50:44,256 [restartedMain] INFO  c.e.p.Practice3Application                         - Started Practice3Application in 3.255 seconds (JVM running for 4.229) 
2022-03-29 13:51:22,404 [SpringApplicationShutdownHook] INFO  o.s.o.j.LocalContainerEntityManagerFactoryBean     - Closing JPA EntityManagerFactory for persistence unit 'default' 
2022-03-29 13:51:22,406 [SpringApplicationShutdownHook] INFO  c.z.h.HikariDataSource                             - HikariPool-1 - Shutdown initiated... 
2022-03-29 13:51:22,415 [SpringApplicationShutdownHook] INFO  c.z.h.HikariDataSource                             - HikariPool-1 - Shutdown completed. 
2022-03-29 13:51:25,310 [restartedMain] INFO  c.e.p.Practice3Application                         - Starting Practice3Application using Java 17.0.2 on Kaiser with PID 13072 (D:\GocHocTap\ITSJ\HocTap\SpringBoot\Practice3\target\classes started by Kaiser in D:\GocHocTap\ITSJ\HocTap\SpringBoot\Practice3) 
2022-03-29 13:51:25,317 [restartedMain] INFO  c.e.p.Practice3Application                         - No active profile set, falling back to 1 default profile: "default" 
2022-03-29 13:51:25,349 [restartedMain] INFO  o.s.b.d.e.DevToolsPropertyDefaultsPostProcessor    - Devtools property defaults active! Set 'spring.devtools.add-properties' to 'false' to disable 
2022-03-29 13:51:25,350 [restartedMain] INFO  o.s.b.d.e.DevToolsPropertyDefaultsPostProcessor    - For additional web related logging consider setting the 'logging.level.web' property to 'DEBUG' 
2022-03-29 13:51:25,882 [restartedMain] INFO  o.s.d.r.c.RepositoryConfigurationDelegate          - Bootstrapping Spring Data JPA repositories in DEFAULT mode. 
2022-03-29 13:51:25,924 [restartedMain] INFO  o.s.d.r.c.RepositoryConfigurationDelegate          - Finished Spring Data repository scanning in 35 ms. Found 2 JPA repository interfaces. 
2022-03-29 13:51:26,352 [restartedMain] INFO  o.s.b.w.e.t.TomcatWebServer                        - Tomcat initialized with port(s): 8080 (http) 
2022-03-29 13:51:26,359 [restartedMain] INFO  o.a.c.h.Http11NioProtocol                          - Initializing ProtocolHandler ["http-nio-8080"] 
2022-03-29 13:51:26,359 [restartedMain] INFO  o.a.c.c.StandardService                            - Starting service [Tomcat] 
2022-03-29 13:51:26,360 [restartedMain] INFO  o.a.c.c.StandardEngine                             - Starting Servlet engine: [Apache Tomcat/9.0.58] 
2022-03-29 13:51:26,419 [restartedMain] INFO  o.a.c.c.C.[.[.[/]                                  - Initializing Spring embedded WebApplicationContext 
2022-03-29 13:51:26,419 [restartedMain] INFO  o.s.b.w.s.c.ServletWebServerApplicationContext     - Root WebApplicationContext: initialization completed in 1069 ms 
2022-03-29 13:51:26,536 [restartedMain] INFO  o.h.j.i.u.LogHelper                                - HHH000204: Processing PersistenceUnitInfo [name: default] 
2022-03-29 13:51:26,578 [restartedMain] INFO  o.h.Version                                        - HHH000412: Hibernate ORM core version 5.6.5.Final 
2022-03-29 13:51:26,697 [restartedMain] INFO  o.h.a.c.Version                                    - HCANN000001: Hibernate Commons Annotations {5.1.2.Final} 
2022-03-29 13:51:26,770 [restartedMain] INFO  c.z.h.HikariDataSource                             - HikariPool-1 - Starting... 
2022-03-29 13:51:27,027 [restartedMain] INFO  c.z.h.HikariDataSource                             - HikariPool-1 - Start completed. 
2022-03-29 13:51:27,038 [restartedMain] INFO  o.h.d.Dialect                                      - HHH000400: Using dialect: org.hibernate.dialect.MySQL5Dialect 
2022-03-29 13:51:27,626 [restartedMain] INFO  o.h.e.t.j.p.i.JtaPlatformInitiator                 - HHH000490: Using JtaPlatform implementation: [org.hibernate.engine.transaction.jta.platform.internal.NoJtaPlatform] 
2022-03-29 13:51:27,632 [restartedMain] INFO  o.s.o.j.LocalContainerEntityManagerFactoryBean     - Initialized JPA EntityManagerFactory for persistence unit 'default' 
2022-03-29 13:51:27,954 [restartedMain] WARN  o.s.b.a.o.j.JpaBaseConfiguration$JpaWebConfiguration - spring.jpa.open-in-view is enabled by default. Therefore, database queries may be performed during view rendering. Explicitly configure spring.jpa.open-in-view to disable this warning 
2022-03-29 13:51:28,213 [restartedMain] INFO  o.s.b.d.a.OptionalLiveReloadServer                 - LiveReload server is running on port 35729 
2022-03-29 13:51:28,229 [restartedMain] INFO  o.a.c.h.Http11NioProtocol                          - Starting ProtocolHandler ["http-nio-8080"] 
2022-03-29 13:51:28,245 [restartedMain] INFO  o.s.b.w.e.t.TomcatWebServer                        - Tomcat started on port(s): 8080 (http) with context path '' 
2022-03-29 13:51:28,253 [restartedMain] INFO  c.e.p.Practice3Application                         - Started Practice3Application in 3.259 seconds (JVM running for 4.169) 
2022-03-29 13:52:19,389 [SpringApplicationShutdownHook] INFO  o.s.o.j.LocalContainerEntityManagerFactoryBean     - Closing JPA EntityManagerFactory for persistence unit 'default' 
2022-03-29 13:52:19,392 [SpringApplicationShutdownHook] INFO  c.z.h.HikariDataSource                             - HikariPool-1 - Shutdown initiated... 
2022-03-29 13:52:19,402 [SpringApplicationShutdownHook] INFO  c.z.h.HikariDataSource                             - HikariPool-1 - Shutdown completed. 
2022-03-29 13:52:22,428 [restartedMain] INFO  c.e.p.Practice3Application                         - Starting Practice3Application using Java 17.0.2 on Kaiser with PID 16516 (D:\GocHocTap\ITSJ\HocTap\SpringBoot\Practice3\target\classes started by Kaiser in D:\GocHocTap\ITSJ\HocTap\SpringBoot\Practice3) 
2022-03-29 13:52:22,434 [restartedMain] INFO  c.e.p.Practice3Application                         - No active profile set, falling back to 1 default profile: "default" 
2022-03-29 13:52:22,466 [restartedMain] INFO  o.s.b.d.e.DevToolsPropertyDefaultsPostProcessor    - Devtools property defaults active! Set 'spring.devtools.add-properties' to 'false' to disable 
2022-03-29 13:52:22,466 [restartedMain] INFO  o.s.b.d.e.DevToolsPropertyDefaultsPostProcessor    - For additional web related logging consider setting the 'logging.level.web' property to 'DEBUG' 
2022-03-29 13:52:22,964 [restartedMain] INFO  o.s.d.r.c.RepositoryConfigurationDelegate          - Bootstrapping Spring Data JPA repositories in DEFAULT mode. 
2022-03-29 13:52:23,007 [restartedMain] INFO  o.s.d.r.c.RepositoryConfigurationDelegate          - Finished Spring Data repository scanning in 34 ms. Found 2 JPA repository interfaces. 
2022-03-29 13:52:23,430 [restartedMain] INFO  o.s.b.w.e.t.TomcatWebServer                        - Tomcat initialized with port(s): 8080 (http) 
2022-03-29 13:52:23,436 [restartedMain] INFO  o.a.c.h.Http11NioProtocol                          - Initializing ProtocolHandler ["http-nio-8080"] 
2022-03-29 13:52:23,436 [restartedMain] INFO  o.a.c.c.StandardService                            - Starting service [Tomcat] 
2022-03-29 13:52:23,437 [restartedMain] INFO  o.a.c.c.StandardEngine                             - Starting Servlet engine: [Apache Tomcat/9.0.58] 
2022-03-29 13:52:23,499 [restartedMain] INFO  o.a.c.c.C.[.[.[/]                                  - Initializing Spring embedded WebApplicationContext 
2022-03-29 13:52:23,500 [restartedMain] INFO  o.s.b.w.s.c.ServletWebServerApplicationContext     - Root WebApplicationContext: initialization completed in 1033 ms 
2022-03-29 13:52:23,621 [restartedMain] INFO  o.h.j.i.u.LogHelper                                - HHH000204: Processing PersistenceUnitInfo [name: default] 
2022-03-29 13:52:23,659 [restartedMain] INFO  o.h.Version                                        - HHH000412: Hibernate ORM core version 5.6.5.Final 
2022-03-29 13:52:23,760 [restartedMain] INFO  o.h.a.c.Version                                    - HCANN000001: Hibernate Commons Annotations {5.1.2.Final} 
2022-03-29 13:52:23,827 [restartedMain] INFO  c.z.h.HikariDataSource                             - HikariPool-1 - Starting... 
2022-03-29 13:52:24,083 [restartedMain] INFO  c.z.h.HikariDataSource                             - HikariPool-1 - Start completed. 
2022-03-29 13:52:24,094 [restartedMain] INFO  o.h.d.Dialect                                      - HHH000400: Using dialect: org.hibernate.dialect.MySQL5Dialect 
2022-03-29 13:52:24,686 [restartedMain] INFO  o.h.e.t.j.p.i.JtaPlatformInitiator                 - HHH000490: Using JtaPlatform implementation: [org.hibernate.engine.transaction.jta.platform.internal.NoJtaPlatform] 
2022-03-29 13:52:24,693 [restartedMain] INFO  o.s.o.j.LocalContainerEntityManagerFactoryBean     - Initialized JPA EntityManagerFactory for persistence unit 'default' 
2022-03-29 13:52:24,989 [restartedMain] WARN  o.s.b.a.o.j.JpaBaseConfiguration$JpaWebConfiguration - spring.jpa.open-in-view is enabled by default. Therefore, database queries may be performed during view rendering. Explicitly configure spring.jpa.open-in-view to disable this warning 
2022-03-29 13:52:25,225 [restartedMain] INFO  o.s.b.d.a.OptionalLiveReloadServer                 - LiveReload server is running on port 35729 
2022-03-29 13:52:25,242 [restartedMain] INFO  o.a.c.h.Http11NioProtocol                          - Starting ProtocolHandler ["http-nio-8080"] 
2022-03-29 13:52:25,257 [restartedMain] INFO  o.s.b.w.e.t.TomcatWebServer                        - Tomcat started on port(s): 8080 (http) with context path '' 
2022-03-29 13:52:25,266 [restartedMain] INFO  c.e.p.Practice3Application                         - Started Practice3Application in 3.14 seconds (JVM running for 4.115) 
2022-03-29 13:54:33,927 [SpringApplicationShutdownHook] INFO  o.s.o.j.LocalContainerEntityManagerFactoryBean     - Closing JPA EntityManagerFactory for persistence unit 'default' 
2022-03-29 13:54:33,929 [SpringApplicationShutdownHook] INFO  c.z.h.HikariDataSource                             - HikariPool-1 - Shutdown initiated... 
2022-03-29 13:54:33,936 [SpringApplicationShutdownHook] INFO  c.z.h.HikariDataSource                             - HikariPool-1 - Shutdown completed. 
